<?xml version="1.0" encoding="utf-8"?>
<!-- Generator: Adobe Illustrator 24.2.0, SVG Export Plug-In . SVG Version: 6.00 Build 0)  -->
<svg version="1.1" id="Layer_1" xmlns="http://www.w3.org/2000/svg" xmlns:xlink="http://www.w3.org/1999/xlink" x="0px" y="0px"
	 viewBox="0 0 160.9 103.6" style="enable-background:new 0 0 160.9 103.6;" xml:space="preserve">
<style type="text/css">
	.st0{fill:#FFFFFF;}
</style>
<path class="st0" d="M155.2,67.2L155.2,67.2L155.2,67.2L155,67c-0.4-0.1-0.8-0.3-1.2-0.4c0.2-0.3,0.3-0.6,0.4-0.9l0.1-0.3l0.2-0.5
	l0,0c2.4-6.7-0.8-14.1-7.3-17c4.1-2.6,7.2-6.3,9-10.8l0,0c4.8-11.8-0.9-25.2-12.7-30c-11.8-4.8-25.2,0.9-30,12.7
	c-1.7,4.3-2.1,9-1.2,13.5c-2.1-0.3-4.3,0.2-6.1,1.3c-1.1-2.7-3.1-5-5.7-6.4c1.1-1.2,2-2.6,2.6-4.1c2.8-7-0.5-15-7.6-17.8
	C92.3,5,88.6,5,85.2,6.4c-0.4,0.1-0.7,0.3-1.1,0.5c-1.3-5-6.3-8-11.3-6.7c-5,1.3-8,6.3-6.7,11.3c-5.3,0.6-9.9,4-12,8.9
	c-2.1-2.7-5-4.9-8.2-6.2l-0.2-0.1c-3.7-1.5-7.8-1.8-11.7-0.9c-0.7-3.8-4.4-6.4-8.2-5.7s-6.4,4.4-5.7,8.2c0.3,1.8,1.3,3.3,2.7,4.4
	l0,0c-4.3,5.4-5.6,12.7-3.2,19.2l-0.2-0.1c-7-2.8-14.9,0.6-17.7,7.6s0.6,14.9,7.6,17.7c0.9,0.4,1.9,0.6,2.8,0.8
	C2.2,69.5-2.6,81.1,1.6,91.3s15.8,14.9,25.9,10.7c4.9-2,8.8-6,10.8-10.9c0.7-1.6,1.1-3.4,1.3-5.1c3.9,3.4,9.5,4.3,14.3,2.3
	c6.9-2.9,10.2-10.9,7.2-17.9c-0.3-0.8-0.8-1.6-1.2-2.3c1.7-0.4,3.3-1,4.7-2l0.4-0.3c1.8,7.6,9.5,12.3,17.2,10.5
	c2.3-0.6,4.4-1.7,6.2-3.2c0,0.1,0,0.1,0.1,0.2c1.4,3.3,4.1,6,7.4,7.3c5.1,2.1,11,0.8,14.9-3.1c3.7-3.8,4.9-9.4,3-14.3
	c1,0.9,2.1,1.6,3.4,2.1c0.4,0.2,0.9,0.3,1.3,0.4c-1.3,3.7,0.6,7.7,4.3,9c0.8,0.3,1.6,0.4,2.4,0.4c1.4,0,2.8-0.4,4-1.2
	c1.2-0.8,2.1-1.9,2.6-3.3c0.1-0.3,0.2-0.5,0.3-0.8c1.3,1.4,2.9,2.5,4.7,3.2c1.6,0.7,3.3,1,5.1,1c0.3,0,0.6,0,0.9,0
	c-0.8,4.3,1.6,8.7,5.7,10.3c1.1,0.5,2.3,0.7,3.5,0.7c1.3,0,2.5-0.3,3.6-0.7c4.7-2,6.9-7.5,4.9-12.2
	C159.3,69.9,157.5,68.2,155.2,67.2L155.2,67.2z M81.6,31.9c0.3-0.7,0.5-1.3,0.7-2c1,0.7,2,1.4,3.2,1.8l0.2,0.1
	c-0.6,0.8-1.2,1.7-1.6,2.7c-0.7,1.8-1,3.7-0.8,5.7c-0.3,0-0.5,0-0.8,0.1c-0.1-0.2-0.1-0.4-0.2-0.6c-0.6-1.5-1.8-2.7-3.2-3.5
	C80.1,34.8,81,33.4,81.6,31.9z M85.1,47.9L85.1,47.9c-0.4,0.9-1.4,1.3-2.3,1c-0.9-0.4-1.3-1.4-1-2.3c0.3-0.7,0.9-1.1,1.6-1.1
	c0.2,0,0.5,0,0.7,0.1c0.4,0.2,0.8,0.5,1,0.9C85.2,46.9,85.2,47.4,85.1,47.9L85.1,47.9z M71.5,7.9c0.8-2.1,3.1-3.1,5.2-2.3
	c2.1,0.8,3.1,3.1,2.3,5.2c-0.6,1.6-2.2,2.7-4,2.6l0,0c-0.9-0.1-1.8-0.5-2.5-1.1l0,0C71.3,11,70.9,9.3,71.5,7.9L71.5,7.9z M58.9,22.7
	c1.5-3.6,5-6,8.9-6c0.7,0,1.5,0.1,2.2,0.3l0,0c0.5,0.1,0.9,0.3,1.3,0.4c0.6,0.2,1.2,0.5,1.7,0.9l0,0c4.4,2.9,5.6,8.8,2.7,13.2
	c-2.9,4.4-8.8,5.6-13.2,2.7C58.7,31.8,57.2,26.9,58.9,22.7z M77.3,43L77.3,43C77,43.9,76,44.4,75,44c0,0,0,0,0,0
	c-0.4-0.2-0.8-0.5-1-1c-0.4-0.9,0-1.9,0.9-2.3c0.2-0.1,0.5-0.1,0.7-0.1c0.2,0,0.4,0,0.6,0.1h0.1C77.2,41,77.7,42,77.3,43
	C77.3,43,77.3,43,77.3,43z M25.6,13.8c0.2-0.4,0.5-0.8,1-1c0.4-0.2,0.9-0.2,1.4,0c0.7,0.3,1.1,0.9,1.1,1.7c0,0.2,0,0.4-0.1,0.6
	c0,0,0,0.1-0.1,0.1c-0.3,0.6-0.9,1-1.6,1c-0.2,0-0.4,0-0.6-0.1C25.7,15.7,25.2,14.7,25.6,13.8C25.6,13.8,25.6,13.8,25.6,13.8z
	 M25,27.1c1.4-3.4,4-6.1,7.3-7.7c1.9-0.9,4.1-1.4,6.2-1.4c1.8,0,3.6,0.3,5.3,1l0.2,0.1c7.4,3,11,11.5,8,18.9v0.1
	c-3,7.5-11.5,11-19,8S22,34.6,25,27.1L25,27.1z M45.7,62.3c-0.3,0.1-0.6,0.1-0.9,0.2c0.1-0.4,0.2-0.8,0.3-1.2
	C45.3,61.7,45.5,62,45.7,62.3L45.7,62.3z M43.7,51.7c-0.1,0.5-0.2,1-0.3,1.6c-0.3-0.4-0.5-0.9-0.9-1.3C43,51.9,43.3,51.8,43.7,51.7
	L43.7,51.7z M11.4,59.6C7.1,57.9,5.1,53,6.8,48.7c1.3-3.2,4.4-5.2,7.8-5.2c1.1,0,2.1,0.2,3.1,0.6c2.1,0.8,3.7,2.4,4.6,4.5
	c0.7,1.7,0.9,3.6,0.4,5.4c-0.1,0.3-0.2,0.7-0.3,1l0,0c-0.1,0.3-0.3,0.7-0.5,1c-0.9,1.6-2.3,2.8-4,3.5C15.8,60.4,13.5,60.4,11.4,59.6
	z M22.2,64c-0.4,0-0.8-0.1-1.1-0.1c0.3-0.2,0.6-0.3,0.9-0.5C22,63.6,22.1,63.8,22.2,64z M33.4,89.2c-3,7.5-11.5,11.1-19,8.1
	c-7.5-3-11.1-11.5-8.1-18.9c2.2-5.5,7.6-9.1,13.6-9.1c1.8,0,3.7,0.3,5.4,1h0.1C32.8,73.2,36.3,81.7,33.4,89.2L33.4,89.2z M39.4,62
	c-1.3,3.4-5.2,5.2-8.6,3.8c-3.1-1.2-4.9-4.6-4.1-7.8c0.1-0.3,0.2-0.7,0.3-1c0.1-0.3,0.3-0.7,0.5-1c1.2-2,3.4-3.2,5.7-3.2
	c0.8,0,1.7,0.2,2.5,0.5l0,0C39.1,54.7,40.8,58.6,39.4,62C39.4,62,39.4,62,39.4,62z M56.3,78.8c-1.7,4.3-6.6,6.3-10.9,4.6
	c-4.3-1.7-6.3-6.6-4.6-10.9c1.3-3.1,4.3-5.2,7.7-5.2c1.1,0,2.2,0.2,3.2,0.6c3.1,1.3,5.2,4.3,5.2,7.7C56.9,76.8,56.7,77.8,56.3,78.8z
	 M64.8,57.9c-1.6,4.3-6.4,6.5-10.7,4.9c-4.3-1.6-6.5-6.4-4.9-10.7c0.1-0.1,0.1-0.3,0.2-0.4c1.3-3.1,4.3-5.2,7.7-5.2
	c1.1,0,2.1,0.2,3.1,0.6h0.1C64.4,48.7,66.5,53.6,64.8,57.9L64.8,57.9z M62.2,42.1L62.2,42.1c-1.8-0.7-3.8-1.1-5.8-1
	c0.2-0.4,0.3-0.7,0.5-1.1v-0.1c0.3-0.8,0.6-1.7,0.8-2.6c1.3,1.2,2.8,2.1,4.4,2.8c1.8,0.7,3.7,1.1,5.6,1.1c0.3,0,0.6,0,0.9,0
	c-0.6,3.3,1.2,6.5,4.3,7.8c0.3,0.1,0.6,0.2,0.8,0.3c-1.3,0.5-2.6,1.2-3.7,2C69,47.1,66.1,43.7,62.2,42.1z M87.1,65.9
	c-1.8,4.6-7,6.8-11.6,4.9s-6.8-7-4.9-11.6c1.8-4.5,7-6.7,11.5-4.9h0.1C86.7,56.1,88.9,61.3,87.1,65.9L87.1,65.9z M87.4,26.7
	c-4.3-1.7-6.3-6.6-4.6-10.9c1.3-3.2,4.3-5.2,7.7-5.2c1.1,0,2.2,0.2,3.2,0.6c3.1,1.3,5.2,4.3,5.2,7.7c0,4.6-3.8,8.4-8.4,8.3
	C89.4,27.3,88.4,27.1,87.4,26.7z M88.9,36.4c0.7-1.6,1.9-3,3.6-3.6c0.8-0.3,1.7-0.5,2.6-0.5c0.8,0,1.7,0.2,2.4,0.5l0,0
	c3.4,1.4,5.1,5.3,3.7,8.7c-1.4,3.4-5.3,5.1-8.7,3.7C89.1,43.7,87.5,39.8,88.9,36.4L88.9,36.4z M88.5,52.1c0.6-0.6,1.1-1.4,1.5-2.2
	v-0.1l0.6,0.3c4.4,1.8,9.4,0.8,12.8-2.5c0,0.1,0.1,0.2,0.1,0.2c-1.1,0.8-2,1.9-2.5,3.1c-0.4,1.1-0.6,2.2-0.5,3.4
	c-1.7,0-3.4,0.4-5,1.1c-1.3,0.5-2.4,1.3-3.5,2.1C91.3,55.5,90,53.6,88.5,52.1z M108.6,71.1c-1.7,4.3-6.6,6.3-10.9,4.6
	c-4.3-1.7-6.4-6.6-4.6-10.9c1.7-4.3,6.6-6.4,10.9-4.6C108.3,61.9,110.4,66.8,108.6,71.1C108.6,71.1,108.6,71.1,108.6,71.1
	L108.6,71.1z M109.2,54.2l-0.1,0.2c-0.4,0.9-1.4,1.3-2.3,0.9c-0.9-0.4-1.3-1.4-0.9-2.3c0.3-0.6,0.9-1,1.6-1c1,0,1.8,0.8,1.8,1.8
	C109.3,53.8,109.3,54,109.2,54.2z M114.9,44L114.9,44c-0.8,2.1-3.2,3-5.2,2.2s-3-3.2-2.2-5.2c0.6-1.5,2.1-2.5,3.7-2.5
	c0.5,0,1,0.1,1.5,0.3C114.7,39.6,115.7,42,114.9,44z M126.7,68.8c-0.4,0.9-1.4,1.4-2.3,1c0,0,0,0,0,0c-0.9-0.4-1.4-1.4-1-2.3
	c0,0,0,0,0,0c0.2-0.4,0.5-0.8,0.9-1c0.2-0.1,0.5-0.1,0.7-0.1c0.2,0,0.5,0,0.7,0.1C126.6,66.8,127,67.8,126.7,68.8L126.7,68.8z
	 M127.1,57c-0.6,1.5-1.8,2.7-3.3,3.4c-3.1,1.3-6.8-0.2-8.1-3.3c-1.3-3.1,0.2-6.8,3.3-8.1c0.8-0.3,1.6-0.5,2.4-0.5
	c3.4,0,6.2,2.8,6.2,6.2c0,0,0,0,0,0C127.6,55.5,127.4,56.3,127.1,57z M128.3,45c-9.1-3.6-13.4-13.9-9.8-23s13.9-13.4,23-9.8
	s13.4,13.9,9.8,23c0,0,0,0,0,0l0,0C147.6,44.2,137.3,48.6,128.3,45z M138.5,68.2c-4.3-1.7-6.4-6.6-4.6-10.9c1.3-3.2,4.3-5.2,7.8-5.2
	c1.1,0,2.1,0.2,3.1,0.6c4.2,1.7,6.3,6.4,4.7,10.6l-0.3,0.4V64C147.3,68,142.6,69.8,138.5,68.2L138.5,68.2z M155.3,77.3
	c-0.4,1-1.2,1.8-2.1,2.2c-1,0.4-2.1,0.4-3.1,0c-2-0.9-3-3.2-2.1-5.2c0.6-1.5,2-2.4,3.6-2.5c0.5,0,1,0.1,1.4,0.3l0.2,0.1
	c1.4,0.7,2.3,2.1,2.3,3.6C155.6,76.2,155.5,76.8,155.3,77.3L155.3,77.3z"/>
</svg>
